2874 33882 308
4654 4522 184
26689 3399 308
41985 3300 324
26752 28408 259
25456 23222 282
13134 22768 279
24420 26098 264
28531 32926 285
28459 2230 308
39542 35838 306
28445 46969 324
11443 36017 324
5067 5124 179
15361 49623 324
23513 35143 311
19642 23884 282
202 37618 324
14399 49241 324
3218 17641 276
38649 47341 314
28547 38400 324
7603 35199 311
37469 35509 324
34038 3797 308
5798 30695 308
13238 34439 311
25132 29046 308
26584 11063 282
35755 5200 324
17217 33819 308
45672 41365 314
29183 3960 308
10605 31116 308
27470 40650 324
16170 26028 282
9572 19461 279
16370 6819 276
4772 49599 324
44579 22175 324
4633 41733 324
10979 39374 324
48782 15315 324
33458 27675 285
44395 44281 239
48418 28521 324
276 45918 324
28580 25313 308
2015 7053 262
39896 25626 324
43662 15877 324
1559 32474 308
12682 16387 276
29425 1623 308
5202 36524 324
32792 28374 285
45815 10939 324
4164 5577 236
10457 45770 324
32366 6158 308
2809 45020 324
2411 28294 308
9698 26759 308
41385 39588 306
8314 36479 324
31124 16997 308
17927 46108 324
4827 27515 308
4709 11624 268
35954 29689 324
17646 4915 276
18292 49002 324
18398 44003 324
27523 7441 308
31121 41201 324
39778 30587 324
10786 47270 324
17845 44532 324
1193 26944 308
34245 19171 311
38978 17350 324
10918 996 262
23969 19092 282
43060 4477 324
7414 36983 324
46662 17351 324
22340 48208 324
853 49833 324
19080 42879 324
1146 4600 238
49261 39514 314
24849 39073 324
31776 43428 324
17446 14633 271
42339 869 324
47869 31028 324
11245 2142 268
48215 48480 252
1389 15306 276
9157 2280 262
11690 35065 311
40387 5104 324
781 37456 324
9357 23899 282
8733 23890 282
21786 34194 308
7597 23263 279
43506 35035 324
4917 48869 324
15500 30474 308
35381 30629 311
22054 2357 279
31856 16216 308
28486 37893 324
536 28253 308
38767 21068 324
24640 11515 282
15737 22718 279
8838 39903 324
41803 24190 324
26439 9037 282
4612 23525 279
23772 37589 324
46791 37826 314
26417 40428 324
18609 19448 261
42006 24987 324
32611 40768 324
5675 14063 276
32211 49102 324
45630 7242 324
38346 11510 324
49181 22622 324
5480 21967 279
4740 14434 276
42421 18195 324
35132 6913 311
10525 37313 324
26788 17152 308
7772 26361 282
18042 23479 274
35951 31947 324
31182 42613 324
37207 46604 314
5177 24145 282
20034 23943 282
12182 7908 268
5248 40423 324
3369 41342 324
11336 10458 268
45358 45878 239
49001 40946 314
49544 45523 314
28064 41017 324
39424 6212 324
44080 13326 324
35775 6128 324
20672 38751 324
9908 40166 324
9810 13353 276
11067 30113 308
22401 45396 324
753 26556 282
21422 21170 256
9979 26571 282
15058 36085 324
15027 29437 308
9545 37087 324
11132 24465 282
16765 46040 324
9132 44161 324
47086 35466 324
24671 36954 324
39777 39064 275
16792 11819 276
13554 5961 276
38083 22615 324
45279 11805 324
36112 6035 324
13004 32991 308
11397 17639 276
9189 47498 324
27886 23283 308
31369 45523 324
42551 89 324
421 25341 282
3424 29095 308
4364 40434 324
10777 12669 268
25797 7893 282
22722 23397 238
45696 6772 324
45605 8509 324
7104 34258 311
864 40467 324
41182 25921 324
15104 1721 276
8103 7185 252
2951 15878 276
9068 46535 324
25965 33219 308
1273 15595 276
17993 42706 324
4604 22141 279
13698 16713 271
7352 40605 324
1046 23107 279
3246 47289 324
7493 19788 279
44258 44389 239
48237 24674 324
22558 8282 279
1820 13628 276
42168 47865 314
14399 31344 308
43797 20080 324
32763 15032 308
25517 11442 282
15296 4122 276
42779 24643 324
18091 45988 324
18323 39928 324
47779 45533 314
25097 21833 282
37757 43904 306
2439 42805 324
12847 42021 324
11126 11179 237
17990 3669 279
10970 32861 308
45757 2674 324
49124 25801 324
31498 35492 311
36641 20855 324
17086 1950 276
5791 6393 262
18992 20379 274
34901 14400 311
10937 2559 262
16542 27239 308
16815 6099 276
187 12025 268
10662 35138 311
35855 24923 324
15294 39230 324
38711 5067 324
47147 41234 314
11626 20638 279
30123 7497 308
47316 10080 324
